…
# group, summarise, and calculate rate per 100k population
state_counts_zeros <- tidy_lyrics_state_zeros %>% 
  group_by(state_name) %>% 
  dplyr::summarise(n = sum(cnt))  %>% # sum(cnt)
  left_join(pop_df, by = c("state_name" = "state_name")) %>%
  mutate(rate = (n / (pop2014 / 100000)) + zero_rate) %>%
  arrange(desc(n))

# create another data set with 
state_counts <- filter(state_counts_zeros, rate > zero_rate)
print(state_counts)
```

    # A tibble: 33 × 5
        state_name     n        name  pop2014       rate
             <chr> <dbl>      <fctr>    <dbl>      <dbl>
    1     new york    61    New York 19594330 0.31131465
    2   california    34  California 38066920 0.08931649
    3      georgia    22     Georgia  9907756 0.22204836
    4    tennessee    14   Tennessee  6451365 0.21700844
    5        texas    13       Texas 26092033 0.04982374
    6      alabama    12     Alabama  4817678 0.24908275
    7  mississippi    10 Mississippi  2984345 0.33508200
    8     kentucky     7    Kentucky  4383272 0.15969815
    9       hawaii     6      Hawaii  1392704 0.43081670
    10    illinois     6    Illinois 12868747 0.04662469
    # ... with 23 more rows
…
# count cities mentions. No need for a rate; not of use now
city_counts <- tidy_lyrics_city %>% 
  group_by(city_name) %>% 
  dplyr::summarise(n = sum(cnt)) %>%
  arrange(desc(n))
print(city_counts)
```

    # A tibble: 85 × 2
         city_name     n
             <chr> <dbl>
    1     new york    61
    2        miami    20
    3  new orleans    19
    4      chicago    17
    5      atlanta    14
    6      memphis    14
    7      houston    11
    8       orange     9
    9      detroit     7
    10      dallas     6
    # ... with 75 more rows

``` r
# count of states that host the cities mentioned
city_state_counts <- tidy_lyrics_city %>% 
  group_by(state_name) %>% 
  dplyr::summarise(n = sum(cnt)) %>%
  arrange(desc(n))
print(city_state_counts)
```

    # A tibble: 33 × 2
       state_name     n
            <chr> <dbl>
    1    new york    66
    2  california    38
    3       texas    33
    4   tennessee    22
    5     florida    21
    6   louisiana    21
    7     georgia    18
    8    illinois    17
    9    michigan     9
    10   nebraska     6
    # ... with 23 more rows
…
